<svg width="419" height="759" viewBox="0 0 419 759" fill="none" xmlns="http://www.w3.org/2000/svg">
<path d="M349.236 588.684V676.665H221.921V588.684C161.031 614.386 127.315 513.059 205.818 491.806H374.397V498.725C454.409 519.979 407.61 619.329 349.236 588.684Z" fill="#DDDBDB"/>
<path d="M221.921 588.684C257.146 556.062 328.101 561.004 349.236 588.684M221.921 588.684C161.031 614.386 127.315 513.059 205.818 491.806H374.397V498.725C454.409 519.979 407.61 619.329 349.236 588.684M221.921 588.684C248.908 572.426 246.049 537.466 225.301 525.911M221.921 588.684V676.665H349.236V588.684M349.236 588.684C309.481 558.039 341.184 509.6 380.939 525.911C409.119 545.188 385.468 581.27 360.81 568.913C349.236 564.959 345.713 534.808 373.39 542.222C384.965 545.322 379.738 564.561 366.849 560.016M205.818 560.016C194.747 561.004 188.136 549.594 197.766 541.233C221.921 531.842 224.443 561.462 209.843 568.913C192.734 579.293 160.087 548.153 192.734 525.911C205.926 520.418 217.034 521.306 225.301 525.911M225.301 525.911C273.107 532.643 306.834 533.917 349.236 526.387" stroke="#C4C4C4" stroke-width="3"/>
<path d="M246.075 676.665V582.753C248.591 575.338 255.133 576.821 256.14 582.753V676.665H259.662V581.27C263.688 572.867 273.249 573.361 275.262 581.27V676.665H278.785V581.27C281.804 571.384 293.881 573.856 293.881 581.27V676.665H278.785H275.262H259.662H256.14H246.075H240.037H233.998H230.476H221.921V593.627C225.262 587.83 227.959 587.695 230.476 593.627V676.665H233.998V586.213C233.998 581.27 238.527 578.798 240.037 584.235V676.665H246.075Z" fill="#C4C4C4"/>
<path d="M324.919 676.171V582.346C322.491 574.938 316.178 576.42 315.207 582.346V676.171H311.807V580.864C307.922 572.469 298.695 572.963 296.753 580.864V676.171H311.807H315.207H324.919H330.747H336.574H339.974H348.229V593.21C345.005 587.419 342.402 587.284 339.974 593.21V676.171H336.574V585.802C336.574 580.864 332.204 578.395 330.747 583.827V676.171H324.919Z" fill="#C4C4C4"/>
<ellipse cx="204.308" cy="552.602" rx="8.05155" ry="7.90843" fill="#C4C4C4"/>
<ellipse cx="368.358" cy="552.602" rx="8.05155" ry="7.90843" fill="#C4C4C4"/>
<path d="M52.3351 702.368V680.125H73.4704C69.8104 686.635 68.7061 694.965 66.9285 710.771L52.3351 702.368Z" fill="#F295BF"/>
<path d="M182.669 650.963L161.534 631.686L182.669 619.329L199.779 640.089L182.669 650.963Z" fill="#F295BF"/>
<path d="M109.199 590.661C109.213 590.599 109.229 590.542 109.248 590.492L130.334 517.014C130.334 517.014 183.173 608.455 185.689 613.892C188.205 619.329 144.425 650.963 140.399 645.526C136.414 640.144 111.071 585.595 109.248 590.492L109.199 590.661Z" fill="#460E44"/>
<path d="M176.631 115.661C146.941 129.006 169.082 154.709 184.179 141.363L237.521 169.043C237.098 194.578 240.406 201.599 262.682 180.411C264.695 210.562 309.985 194.745 277.275 169.043C286.333 172.503 293.378 163.606 283.314 154.709C298.41 154.709 297.907 134.443 283.314 144.329C288.968 137.817 289.719 134.14 286.333 127.523C301.43 118.132 293.378 86.9927 271.74 101.327C286.333 82.0499 273.753 66.7273 256.643 74.6357C253.624 59.3132 236.885 45.1586 225.947 70.6815C216.994 62.6915 213.812 65.5863 209.843 77.6014C198.332 56.4668 192.782 59.686 184.179 86.9927C152.476 83.0385 164.553 109.729 176.631 115.661Z" fill="#663F2B"/>
<path d="M211.856 224.402C212.46 216.762 214.523 213.462 207.831 201.665C172.102 211.551 175.121 159.652 183.173 143.341C205.03 105.323 209.513 104.612 207.831 129.007C235.483 107.838 235.429 122.837 237.521 145.812C249.446 138.359 261.172 144.329 258.656 154.709C256.14 165.089 249.36 169.573 237.521 170.526L233.495 189.308C229.263 203.218 231.564 209.699 245.572 218.471L211.856 224.402Z" fill="#F295BF"/>
<path d="M31.2012 464.119C27.1581 450.487 56.909 449.175 64.4127 434.964L82.0251 443.861C66.2079 447.187 63.1075 468.234 58.8769 470.058C54.6464 471.882 53.7587 468.932 54.3479 458.195C43.0811 468.047 33.952 478.344 31.2012 464.119Z" fill="#F295BF"/>
<path d="M340.81 484.153C352.879 476.095 331.344 456.619 335.101 440.948L315.949 436.918C325.658 449.309 314.06 467.548 316.038 471.587C318.016 475.625 320.637 473.89 327.301 465.201C329.264 479.828 329.322 493.474 340.81 484.153Z" fill="#F295BF"/>
<path d="M196.76 241.702C196.76 222.425 224.94 221.93 224.94 221.93L266.204 457.701H97.1218C147.75 385.808 196.76 260.978 196.76 241.702Z" fill="white"/>
<path d="M146.941 516.025C124.799 518.991 91.5863 672.711 86.5541 679.137C81.5219 685.562 32.7094 678.643 32.7094 673.205C32.7094 667.768 64.8668 472.019 86.5541 462.149C123.289 442.378 192.381 462.492 282.811 462.149L274.759 483.897C204.621 526.161 169.082 513.06 146.941 516.025Z" fill="#781874"/>
<path d="M53.8447 425.079C46.7996 410.745 196.256 247.139 196.256 247.139C168.889 379.41 111.715 453.252 98.6314 453.747C85.5477 454.241 60.8898 439.413 53.8447 425.079Z" fill="#2773AD"/>
<path d="M223.43 476.483C224.196 441.011 219.791 253.193 223.934 221.436C258.153 179.917 309.395 248.633 365.339 440.895C323.478 449.506 306.372 450.759 297.404 440.895C298.959 459.203 294.539 479.137 291.869 482.909C289.198 486.68 224.231 480.023 223.43 476.483Z" fill="#308FD8"/>
<path d="M197.288 636.036L211.856 654.342L204.811 660.354L155.496 696.931C152.979 689.517 147.061 692.359 170.089 671.228C176.107 662.109 178.913 654.795 180.153 647.997C189.875 646.462 192.64 645.831 197.288 636.036Z" fill="black" stroke="black"/>
<path d="M72.9791 700.672L73.7411 723.894L64.4411 724.664L2.65258 725.605C5.07609 718.161 -1.40955 717.025 29.8767 713.315C40.214 709.442 45.2361 705.44 50.3221 700.672C56.7345 703.726 60.4201 705.611 72.9791 700.672Z" fill="black" stroke="black"/>
<path d="M235.199 60.1128L277.213 78.9419L267.47 103.558C251.227 94.1523 242.267 90.5084 226.396 85.2437L235.199 60.1128Z" fill="#9F1919"/>
<path d="M204.619 49.3997L207.179 41.2966L307.618 85.0322L303.845 94.2559L204.619 49.3997Z" fill="#9F1919" stroke="#930B0B"/>
</svg>
