<svg width="542" height="789" viewBox="0 0 542 789" fill="none" xmlns="http://www.w3.org/2000/svg">
<path d="M35.4821 659.405L52.8338 645.338L60.16 639.399L68.5976 652.218L43.9197 672.224L35.4821 659.405Z" fill="#F295BF"/>
<path d="M41.2856 653.562L26.8983 664.389L30.4269 671.186L56.3982 714.303C59.864 708.991 63.3377 712.914 52.145 689.5C50.0501 680.47 50.3154 675.047 51.0178 669.204C46.414 666.27 43.6897 664.647 41.2856 653.562Z" fill="black" stroke="black"/>
<path d="M272.349 748.251V724.403V714.334H286.653V748.251H272.349Z" fill="#F295BF"/>
<path d="M271.521 739.603L270.912 758.883L277.939 759.73L324.63 761.887C322.809 755.648 327.712 754.849 304.075 751.069C296.268 747.62 292.479 744.183 288.642 740.108C283.792 742.503 281.004 743.987 271.521 739.603Z" fill="black" stroke="black"/>
<path d="M264.314 717.599C255.324 710.801 264.314 548.685 264.314 548.685L242.739 442.002H305.666C330.837 520.968 308.363 711.847 301.171 717.599C293.979 723.352 273.303 724.398 264.314 717.599Z" fill="#82B83A"/>
<path d="M79.098 667.449C94.5241 666.496 185.046 607.041 220.265 561.759H149.247C99.3882 594.459 54.8294 624.763 54.38 631.038C53.9306 637.313 63.672 668.401 79.098 667.449Z" fill="#82B83A"/>
<path d="M227.856 111.813C222.013 133.261 237.743 152.214 254.821 147.226L301.561 88.3708C340.211 58.4443 281.23 13.036 254.821 58.4443C218.867 33.0068 203.138 79.8916 222.013 82.8843C195.947 88.3708 211.227 124.781 227.856 111.813Z" fill="#603774"/>
<path d="M440.905 267.874C478.021 267.875 479.369 297.959 417.859 280.645L418.496 269.729C426.787 263.543 462.291 240.6 440.905 267.874Z" fill="#F295BF"/>
<path d="M83.2025 465.723C53.1009 489.821 36.1491 466.298 95.1613 440.403L100.399 449.67C96.9355 460.069 80.2355 501.729 83.2025 465.723Z" fill="#F295BF"/>
<path d="M251.226 181.143L250.24 147.653C260.033 147.653 262.461 126.278 260.664 126.278C248.008 126.278 244.484 101.339 260.033 104.837L260.664 104.831C256.619 87.3735 278.191 100.342 302.01 88.3711C324.931 138.747 298.415 164.185 282.236 164.185V186.131L251.226 181.143Z" fill="#F295BF"/>
<path d="M418.933 295.027C411.994 301.597 350.068 284.144 288.32 267.964L283.726 192.209C326.978 214.056 419.828 252.106 423.669 258.878C427.509 265.649 425.873 288.456 418.933 295.027Z" fill="#2F87B8"/>
<path d="M271.785 452.774C285.761 454.417 309.886 452.599 312.025 437.091C314.163 421.583 296.723 171.781 279.812 190.576C262.902 209.37 271.785 452.774 271.785 452.774Z" fill="white"/>
<path d="M80.5582 435.348C64.057 424.555 235.732 180.425 239.639 178.169C243.547 175.913 288.252 177.354 286.253 192.617C284.254 207.879 288.797 547.449 289.855 555.124C290.914 562.799 157.5 592.14 133.674 561.674C121.511 548.167 164.775 391.212 175.787 358.355C186.799 325.498 124.571 449.954 114.303 453.492C104.035 457.031 97.0594 446.141 80.5582 435.348Z" fill="#2F87B8"/>
<path d="M229.282 51.7639L266.66 31.7824L274.202 54.6526C258.562 61.0399 250.798 65.5352 237.712 74.2463L229.282 51.7639Z" fill="#9F1919"/>
<path d="M202.89 69.1257L200.019 62.1474L288.544 13.6362L291.271 22.2341L202.89 69.1257Z" fill="#9F1919" stroke="#930B0B"/>
<path d="M505.096 104.96C497.278 97.1531 487.009 93.1292 476.143 93.5419C455.306 94.4017 438.312 112.698 438.245 134.365C438.212 143.96 441.459 153.315 447.389 160.675C455.935 171.336 460.639 184.784 460.639 198.575C460.639 198.575 459.745 204.903 464.085 204.903H491.382C495.821 204.903 494.827 198.575 494.827 198.575C494.827 185.093 499.597 171.749 508.641 159.987C514.239 152.662 517.221 143.857 517.221 134.503C517.221 123.257 512.914 112.733 505.096 104.96Z" fill="#FAFF00"/>
<path d="M523.184 81.4705C521.825 80.0604 519.639 80.0604 518.314 81.4705L509.9 90.206C508.542 91.616 508.542 93.8859 509.9 95.2616C511.258 96.6372 513.444 96.6716 514.769 95.2616L523.184 86.5261C524.542 85.1504 524.542 82.8805 523.184 81.4705Z" fill="#FAFF00"/>
<path d="M491.514 209.787H463.952C462.031 209.787 460.507 211.403 460.507 213.364C460.507 215.358 462.064 216.94 463.952 216.94H491.514C493.436 216.94 494.959 215.324 494.959 213.364C494.959 211.403 493.402 209.787 491.514 209.787Z" fill="#C4C4C4"/>
<path d="M486.313 223.268H469.186C467.265 223.268 465.741 224.885 465.741 226.845C465.741 228.84 467.298 230.422 469.186 230.422H486.313C488.234 230.422 489.758 228.805 489.758 226.845C489.758 224.885 488.201 223.268 486.313 223.268Z" fill="#C4C4C4"/>
<path d="M477.733 81.4361C479.655 81.4361 481.179 79.8197 481.179 77.8593V65.5126C481.179 63.5178 479.622 61.9358 477.733 61.9358C475.845 61.9358 474.288 63.5522 474.288 65.5126V77.8593C474.288 79.8541 475.812 81.4361 477.733 81.4361Z" fill="#FAFF00"/>
<path d="M445.567 95.296C446.925 93.8859 446.925 91.6161 445.567 90.2404L437.152 81.5049C435.794 80.0948 433.608 80.0948 432.283 81.5049C430.958 82.915 430.924 85.1848 432.283 86.5605L440.697 95.296C442.055 96.6717 444.242 96.6717 445.567 95.296V95.296Z" fill="#FAFF00"/>
<path d="M538.555 125.08H526.662C524.741 125.08 523.217 126.696 523.217 128.656C523.217 130.617 524.774 132.233 526.662 132.233H538.555C540.476 132.233 542 130.617 542 128.656C542 126.696 540.443 125.08 538.555 125.08Z" fill="#FAFF00"/>
<path d="M428.804 125.08H416.911C414.99 125.08 413.466 126.696 413.466 128.656C413.466 130.617 415.023 132.233 416.911 132.233H428.804C430.725 132.233 432.249 130.617 432.249 128.656C432.249 126.696 430.725 125.08 428.804 125.08V125.08Z" fill="#FAFF00"/>
</svg>
